\relax 
\providecommand\hyper@newdestlabel[2]{}
\providecommand\HyperFirstAtBeginDocument{\AtBeginDocument}
\HyperFirstAtBeginDocument{\ifx\hyper@anchor\@undefined
\global\let\oldcontentsline\contentsline
\gdef\contentsline#1#2#3#4{\oldcontentsline{#1}{#2}{#3}}
\global\let\oldnewlabel\newlabel
\gdef\newlabel#1#2{\newlabelxx{#1}#2}
\gdef\newlabelxx#1#2#3#4#5#6{\oldnewlabel{#1}{{#2}{#3}}}
\AtEndDocument{\ifx\hyper@anchor\@undefined
\let\contentsline\oldcontentsline
\let\newlabel\oldnewlabel
\fi}
\fi}
\global\let\hyper@last\relax 
\gdef\HyperFirstAtBeginDocument#1{#1}
\providecommand\HyField@AuxAddToFields[1]{}
\providecommand\HyField@AuxAddToCoFields[2]{}
\citation{laird_influence_2006}
\citation{dryden_long-range_2014}
\citation{dryden_long-range_2014}
\citation{Benjamin_2016}
\citation{Benjamin_2016}
\citation{srivastava_light-controlled_2010}
\@writefile{toc}{\contentsline {section}{\numberline {1}Introduction}{2}{section.1}}
\@writefile{lof}{\contentsline {figure}{\numberline {1}{\ignorespaces Illustration of the types of long-range interactions: van der Waals-London dispersion (vdW-Ld), polar and and electrostatic interactions\cite  {dryden_long-range_2014}.\relax }}{2}{figure.caption.2}}
\providecommand*\caption@xref[2]{\@setref\relax\@undefined{#1}}
\newlabel{fig:LRIs}{{1}{2}{Illustration of the types of long-range interactions: van der Waals-London dispersion (vdW-Ld), polar and and electrostatic interactions\cite {dryden_long-range_2014}.\relax }{figure.caption.2}{}}
\citation{grzelczak_directed_2010}
\citation{srivastava_light-controlled_2010}
\citation{ma_determination_2014,sahin_comparative_2010}
\citation{steinmetz_pegylated_2009}
\citation{ma_long-range_}
\citation{glotzer_self-assembly:_2004}
\citation{french_origins_2000}
\@writefile{toc}{\contentsline {section}{\numberline {2}Literature Review}{3}{section.2}}
\@writefile{toc}{\contentsline {subsection}{\numberline {2.1}Long-range Interaction Driven Mesoscale Assembly}{3}{subsection.2.1}}
\@writefile{lof}{\contentsline {figure}{\numberline {2}{\ignorespaces Cryo-TEM images of smectite equilibrated in 0.1 M NaCl at 50 ug/mL. The smectitie in osmotic hydrate state exhibits ordered stacking configuration. The average interlayer spacing and standard deviation (in nanometers) from 5 measurements are indicated. Inset: Example intensity profile from one indicated region used to determine interlayer spacing (in nm) \cite  {Benjamin_2016}\relax }}{3}{figure.caption.3}}
\newlabel{fig:smectitehydrates-1A}{{2}{3}{Cryo-TEM images of smectite equilibrated in 0.1 M NaCl at 50 ug/mL. The smectitie in osmotic hydrate state exhibits ordered stacking configuration. The average interlayer spacing and standard deviation (in nanometers) from 5 measurements are indicated. Inset: Example intensity profile from one indicated region used to determine interlayer spacing (in nm) \cite {Benjamin_2016}\relax }{figure.caption.3}{}}
\citation{rajter_van_2007}
\citation{rajter_van_2007}
\citation{glotzer_self-assembly:_2004}
\@writefile{lof}{\contentsline {figure}{\numberline {3}{\ignorespaces Schematic of planar and cylindrical interaction configurations and vdW-Ld dispersion interaction energy between (a) two semi-infinite optically isotropic substrates (b) two semi-infinite optically anisotropic substrates (c) two optically anisotropic cylinders \cite  {rajter_van_2007}\relax }}{4}{figure.caption.4}}
\newlabel{fig:GH-equation}{{3}{4}{Schematic of planar and cylindrical interaction configurations and vdW-Ld dispersion interaction energy between (a) two semi-infinite optically isotropic substrates (b) two semi-infinite optically anisotropic substrates (c) two optically anisotropic cylinders \cite {rajter_van_2007}\relax }{figure.caption.4}{}}
\@writefile{toc}{\contentsline {subsection}{\numberline {2.2}Factors That Control Long-range Interactions}{4}{subsection.2.2}}
\citation{woollam_overview_1999}
\citation{laref_electronic_2008}
\citation{ching_theoretical_1990}
\citation{parsegian_van_2006,rajter_van_2007}
\citation{dryden_van_2015}
\citation{some_light-scattering-based_2013}
\citation{wu_osmotic_1999}
\citation{roth_van_1996}
\citation{arzensek_colloidal_2012}
\citation{RayleighScattering}
\citation{RayleighScattering}
\@writefile{toc}{\contentsline {subsection}{\numberline {2.3}Characterization and Prediction of Electronic Structure, Optical Properties, and Long-range Interactions}{5}{subsection.2.3}}
\newlabel{eq:B22M2}{{1}{5}{Characterization and Prediction of Electronic Structure, Optical Properties, and Long-range Interactions}{equation.2.1}{}}
\citation{glotzer_self-assembly:_2004,zhang_simulations_2007}
\citation{glotzer_self-assembly:_2004}
\citation{glotzer_self-assembly:_2004}
\citation{glotzer_self-assembly:_2004}
\@writefile{lof}{\contentsline {figure}{\numberline {4}{\ignorespaces Calculation flowchart of Gecko-Hamaker program. \textbf  {cite Jaime poster}\relax }}{6}{figure.caption.5}}
\newlabel{fig:HamakerCalcFlow}{{4}{6}{Calculation flowchart of Gecko-Hamaker program. \textbf {cite Jaime poster}\relax }{figure.caption.5}{}}
\@writefile{lof}{\contentsline {figure}{\numberline {5}{\ignorespaces A schematic of Rayleigh scattering\cite  {RayleighScattering}\relax }}{6}{figure.caption.6}}
\newlabel{fig:lightscattering}{{5}{6}{A schematic of Rayleigh scattering\cite {RayleighScattering}\relax }{figure.caption.6}{}}
\citation{lan_dna-programmed_2014,tan_dna_2014static light scattering}
\citation{schimelman_optical_2015,poudel_electronic_2014}
\citation{stigter_theory_1993}
\citation{nicolai_ionic_1989}
\citation{borochov_dependence_1981}
\citation{dryden_van_2015}
\citation{program_english:_2008}
\citation{program_english:_2008}
\citation{ambrus_human_2006}
\citation{_g-quadruplex_2016,ambrus_human_2006}
\citation{Lokendra_2016}
\@writefile{toc}{\contentsline {subsection}{\numberline {2.4}Promising Cylindrical and Planar Units for Mesoscale Self-assembly}{7}{subsection.2.4}}
\@writefile{lof}{\contentsline {figure}{\numberline {6}{\ignorespaces Anisotropically interacting particles and their assemblies predicted by computer simulation\cite  {glotzer_self-assembly:_2004}.\relax }}{7}{figure.caption.7}}
\newlabel{fig:simulation-assembly}{{6}{7}{Anisotropically interacting particles and their assemblies predicted by computer simulation\cite {glotzer_self-assembly:_2004}.\relax }{figure.caption.7}{}}
\@writefile{lof}{\contentsline {figure}{\numberline {7}{\ignorespaces Human chromosomes (grey) capped by telomeres (white)\cite  {program_english:_2008}.\relax }}{7}{figure.caption.8}}
\newlabel{fig:telomere}{{7}{7}{Human chromosomes (grey) capped by telomeres (white)\cite {program_english:_2008}.\relax }{figure.caption.8}{}}
\citation{xu_new_2006}
\citation{xu_new_2006}
\citation{liu_tin-coated_2013,chiang_biological_2012,lee_virus-templated_2012}
\citation{tseng_digital_2006,portney_nanoscale_2008}
\citation{TMVpic}
\citation{niu_assembly_2007}
\citation{TMVpic}
\citation{niu_assembly_2007}
\@writefile{lof}{\contentsline {figure}{\numberline {8}{\ignorespaces Schematic representation of the folded structures of d[AGGG(TTAGGG)3]. (a) The Na$^{+}$ stabilized solution and crystal structure, with anti-parallel GGG columns and one diagonal and two lateral TTAs. (b) The K$^{+}$ stabilized crystal structure, with parallel GGG columns and external TTA loops abutting the sides of the G-quartet. (c) The K$^{+}$ stabilized solution structure, with mixed antiparalell/paralell GGG columns. Blue and red boxes represent guanine bases in the anti and syn conformations, respectively \cite  {xu_new_2006}. \relax }}{8}{figure.caption.9}}
\newlabel{fig:Q-DNA-structure}{{8}{8}{Schematic representation of the folded structures of d[AGGG(TTAGGG)3]. (a) The Na$^{+}$ stabilized solution and crystal structure, with anti-parallel GGG columns and one diagonal and two lateral TTAs. (b) The K$^{+}$ stabilized crystal structure, with parallel GGG columns and external TTA loops abutting the sides of the G-quartet. (c) The K$^{+}$ stabilized solution structure, with mixed antiparalell/paralell GGG columns. Blue and red boxes represent guanine bases in the anti and syn conformations, respectively \cite {xu_new_2006}. \relax }{figure.caption.9}{}}
\@writefile{lof}{\contentsline {figure}{\numberline {9}{\ignorespaces Left: schematic of tobacco mosaic virus (TMV) \cite  {TMVpic}. Right: schematic illustration of polyaniline/TMV composite nanofiber and bundled structure formation. (A) TMV head-to-tail assembly assisted by the polymerization of aniline on TMV surface to form long 1D nanofibers at low concentrations for low and near-neutral reaction pH; (B) TMV side-to-side assembly observed at high concentrations; and (C, D) Plausible mechanisms for the formation of polyaniline coated TMV bundled structures \cite  {niu_assembly_2007}\relax }}{9}{figure.caption.10}}
\newlabel{fig:TMV-fig-assemble}{{9}{9}{Left: schematic of tobacco mosaic virus (TMV) \cite {TMVpic}. Right: schematic illustration of polyaniline/TMV composite nanofiber and bundled structure formation. (A) TMV head-to-tail assembly assisted by the polymerization of aniline on TMV surface to form long 1D nanofibers at low concentrations for low and near-neutral reaction pH; (B) TMV side-to-side assembly observed at high concentrations; and (C, D) Plausible mechanisms for the formation of polyaniline coated TMV bundled structures \cite {niu_assembly_2007}\relax }{figure.caption.10}{}}
\@writefile{lof}{\contentsline {figure}{\numberline {10}{\ignorespaces (a)The crystal structure of a 2-layer mica. (b)-(c) A 94-layer polytype of mica that exhibits a 96-nm periodicity.\relax }}{10}{figure.caption.11}}
\newlabel{fig:Mica-polytype}{{10}{10}{(a)The crystal structure of a 2-layer mica. (b)-(c) A 94-layer polytype of mica that exhibits a 96-nm periodicity.\relax }{figure.caption.11}{}}
\@writefile{toc}{\contentsline {section}{\numberline {3}Research Plan}{10}{section.3}}
\citation{bortz_optical_1989}
\citation{poudel_electronic_2014}
\@writefile{toc}{\contentsline {section}{\numberline {4}Methods}{12}{section.4}}
\@writefile{toc}{\contentsline {subsection}{\numberline {4.1}Full-spectral Electronic and Optical Characterization}{12}{subsection.4.1}}
\@writefile{toc}{\contentsline {subsection}{\numberline {4.2}Specific Regional-spectral Optical Characterization}{12}{subsection.4.2}}
\@writefile{lof}{\contentsline {figure}{\numberline {11}{\ignorespaces In-situ flow-through VUV-UV spectroscopic ellipsometry measures the polarization dependent ellipsometric parameters $\psi $ and $\Delta $ as a function of incident angle. A prism-based flow cell with incident and reflection windows is attached to a silicon or gold-coated silicon substrate; a pump is used to circulate TMV solution through the flow cell continuously; TMV is deposited on the substrate while reflection ellipsometry is performed \relax }}{13}{figure.caption.12}}
\newlabel{fig:Ellips}{{11}{13}{In-situ flow-through VUV-UV spectroscopic ellipsometry measures the polarization dependent ellipsometric parameters $\psi $ and $\Delta $ as a function of incident angle. A prism-based flow cell with incident and reflection windows is attached to a silicon or gold-coated silicon substrate; a pump is used to circulate TMV solution through the flow cell continuously; TMV is deposited on the substrate while reflection ellipsometry is performed \relax }{figure.caption.12}{}}
\citation{ma_long-range_}
\newlabel{eq:Beer}{{2}{14}{Specific Regional-spectral Optical Characterization}{equation.4.2}{}}
\@writefile{lof}{\contentsline {figure}{\numberline {12}{\ignorespaces Multi-angle polarization dependent reflectance, transmission and scattering spectroscopy \relax }}{14}{figure.caption.13}}
\newlabel{fig:UMA-schematic}{{12}{14}{Multi-angle polarization dependent reflectance, transmission and scattering spectroscopy \relax }{figure.caption.13}{}}
\@writefile{toc}{\contentsline {subsection}{\numberline {4.3}Direct Determination of Long-range Interactions}{14}{subsection.4.3}}
\newlabel{eq:ZimmEq}{{3}{15}{Direct Determination of Long-range Interactions}{equation.4.3}{}}
\newlabel{eq:DebyeEq}{{4}{15}{Direct Determination of Long-range Interactions}{equation.4.4}{}}
\citation{_nucleoside_2016}
\citation{_nucleoside_2016}
\@writefile{toc}{\contentsline {section}{\numberline {5}Preliminary Work}{16}{section.5}}
\@writefile{toc}{\contentsline {subsection}{\numberline {5.1}Optical Properties and Long-range Interactions of Cylindrical Biomolecule: DNA}{16}{subsection.5.1}}
\@writefile{lof}{\contentsline {figure}{\numberline {13}{\ignorespaces The four nitrogen bases contained in DNA \cite  {_nucleoside_2016}.\relax }}{16}{figure.caption.14}}
\newlabel{fig:bases}{{13}{16}{The four nitrogen bases contained in DNA \cite {_nucleoside_2016}.\relax }{figure.caption.14}{}}
\@writefile{lof}{\contentsline {figure}{\numberline {14}{\ignorespaces The four duplex DNA sequences that differ in stacking sequence are selected to study the effect of polarization and stacking sequence on molar absorptivity.\relax }}{17}{figure.caption.15}}
\newlabel{fig:DuplexLayout}{{14}{17}{The four duplex DNA sequences that differ in stacking sequence are selected to study the effect of polarization and stacking sequence on molar absorptivity.\relax }{figure.caption.15}{}}
\@writefile{lof}{\contentsline {figure}{\numberline {15}{\ignorespaces Experimental (left) and simulated (right) molar absorptivity of ((AT)5(GC)5)n, ((AT-GC)5)n, ((AT)5(CG)5)n and ((AT-CG)5)n (n=2 for experiments).\relax }}{17}{figure.caption.16}}
\newlabel{fig:duplexAbsorptivity}{{15}{17}{Experimental (left) and simulated (right) molar absorptivity of ((AT)5(GC)5)n, ((AT-GC)5)n, ((AT)5(CG)5)n and ((AT-CG)5)n (n=2 for experiments).\relax }{figure.caption.16}{}}
\citation{xu_new_2006}
\@writefile{lof}{\contentsline {figure}{\numberline {16}{\ignorespaces Calculated partial density of states of ((AT)5(GC)5)n, ((AT-GC)5)n, ((AT)5(CG)5)n and ((AT-CG)5)n sectioned by structural groups adenine (A), thymine (T), guanine (G), cytosine (C), Na$^{+}$ counterion, PO$_{4}$$^{3-}$ complex anion, and deoxyribose sugar. Occupied state features are identified with a capital letter and number, and unoccupied state features are given by a lower-case letter and a number\relax }}{18}{figure.caption.17}}
\newlabel{fig:duplexPDOS}{{16}{18}{Calculated partial density of states of ((AT)5(GC)5)n, ((AT-GC)5)n, ((AT)5(CG)5)n and ((AT-CG)5)n sectioned by structural groups adenine (A), thymine (T), guanine (G), cytosine (C), Na$^{+}$ counterion, PO$_{4}$$^{3-}$ complex anion, and deoxyribose sugar. Occupied state features are identified with a capital letter and number, and unoccupied state features are given by a lower-case letter and a number\relax }{figure.caption.17}{}}
\@writefile{lof}{\contentsline {figure}{\numberline {17}{\ignorespaces Interband electronic transitions assignments from the partial density of states for each of the four duplex DNA sequences. Transitions are from an occupied state to an unoccupied state indicated in the figure of partial density of states.\relax }}{19}{figure.caption.18}}
\newlabel{fig:duplexPeakAssign}{{17}{19}{Interband electronic transitions assignments from the partial density of states for each of the four duplex DNA sequences. Transitions are from an occupied state to an unoccupied state indicated in the figure of partial density of states.\relax }{figure.caption.18}{}}
\@writefile{toc}{\contentsline {subsection}{\numberline {5.2}Optical Properties and Long-range Interactions of Planar Inorganic Material: Mica}{19}{subsection.5.2}}
\@writefile{lof}{\contentsline {figure}{\numberline {18}{\ignorespaces Molar absorptivity of Na$^{+}$ stabilized G-quadruplex, K$^{+}$ stabilized G-quadruplex and 22 base-pair duplex DNA (AT)(GC)3((TA)2(AT)(GC)3)3 obtained with UV-vis absorbance measurement. \relax }}{20}{figure.caption.19}}
\newlabel{fig:Q-DNA-absorptivity}{{18}{20}{Molar absorptivity of Na$^{+}$ stabilized G-quadruplex, K$^{+}$ stabilized G-quadruplex and 22 base-pair duplex DNA (AT)(GC)3((TA)2(AT)(GC)3)3 obtained with UV-vis absorbance measurement. \relax }{figure.caption.19}{}}
\citation{tan_optical_2003}
\citation{french_optical_1998}
\citation{tan_optical_2003}
\citation{french_optical_1998}
\citation{dogic_ordered_2006}
\citation{kanduc_role_2009}
\@writefile{toc}{\contentsline {subsection}{\numberline {5.3}Photon Management Assembly Constructed from Cylindrical Biomolecules}{21}{subsection.5.3}}
\@writefile{toc}{\contentsline {subsubsection}{\numberline {5.3.1}Research Steps}{21}{subsubsection.5.3.1}}
\@writefile{lof}{\contentsline {figure}{\numberline {19}{\ignorespaces Top-left: refletance spectrum of muscovite measured with VUV-LPLS. Top-right: complex dielectric function and refractive index derived from reflectance spectrum via Kramers-Kronig transformation. Bottom-left: a unit cell of the crystal model of muscovite used in ab initio simulation (by Wai-Yim Ching et al.). Bottom-right: simulated imaginary part of dielectric function as well as Kramers-Kronig transformed real part of dielectric function and complex refractive index (by Wai-Yim Ching et al.).\relax }}{22}{figure.caption.20}}
\newlabel{fig:micadata}{{19}{22}{Top-left: refletance spectrum of muscovite measured with VUV-LPLS. Top-right: complex dielectric function and refractive index derived from reflectance spectrum via Kramers-Kronig transformation. Bottom-left: a unit cell of the crystal model of muscovite used in ab initio simulation (by Wai-Yim Ching et al.). Bottom-right: simulated imaginary part of dielectric function as well as Kramers-Kronig transformed real part of dielectric function and complex refractive index (by Wai-Yim Ching et al.).\relax }{figure.caption.20}{}}
\@writefile{lof}{\contentsline {figure}{\numberline {20}{\ignorespaces Hamaker coefficients of halfspace-interlayer-halfspace configurations with muscovite, Al2O3 or amorphous SiO2 as the main component, and with vacuum or water as the interlayer evaluated at interlayer spacing of 1 to 50 nm. The input optical spectra of Al2O3 and amorphous SiO2 are from references \cite  {tan_optical_2003} and \cite  {french_optical_1998}\relax }}{23}{figure.caption.21}}
\newlabel{fig:Hamakercoeff}{{20}{23}{Hamaker coefficients of halfspace-interlayer-halfspace configurations with muscovite, Al2O3 or amorphous SiO2 as the main component, and with vacuum or water as the interlayer evaluated at interlayer spacing of 1 to 50 nm. The input optical spectra of Al2O3 and amorphous SiO2 are from references \cite {tan_optical_2003} and \cite {french_optical_1998}\relax }{figure.caption.21}{}}
\@writefile{lof}{\contentsline {figure}{\numberline {21}{\ignorespaces (a) A picture of the TMV deposited sample. (b) A schematic of the cross-section of the TMV-deposited sample. (c) AFM image of the surface of the substrate. (d) AMF image of the surface of the TMV-deposited chip. The TMV strips/bundles have low degree of ordering.\relax }}{24}{figure.caption.22}}
\newlabel{fig:TMV-sample}{{21}{24}{(a) A picture of the TMV deposited sample. (b) A schematic of the cross-section of the TMV-deposited sample. (c) AFM image of the surface of the substrate. (d) AMF image of the surface of the TMV-deposited chip. The TMV strips/bundles have low degree of ordering.\relax }{figure.caption.22}{}}
\@writefile{toc}{\contentsline {subsubsection}{\numberline {5.3.2}Preliminary work}{24}{subsubsection.5.3.2}}
\@writefile{lof}{\contentsline {figure}{\numberline {22}{\ignorespaces Multi-angle polarization-dependent relfection, transmission and scattering Spectroscopy of unaligned TMV on a polymer coated gold substrate for S (left column) and P (right column) polarization of light. The top row shows the wavelength dependent differential reflectance of TMV. The wavelength range encompassing the 260nm absorbance peak and the transparent region below the fundamental absorption edge at 320 nm, where the virus-based mesostructure can function as a photon management layer. The TMV induces strong polarization dependent reflectance changes arising from its anisotropy as is seen at high incidence angles. The bottom row shows scattering about a 25 $^{o}$ specular reflected beam as a function of wavelength and angle for S and P polarization. TMV exhibits large reflectance with respect to S-polarized light. From mesostructured virus-templated arrays, multi-angle, polarization-dependent scattering provides information on optical activity and anisotropy and defects.\relax }}{25}{figure.caption.23}}
\newlabel{fig:UMA-data}{{22}{25}{Multi-angle polarization-dependent relfection, transmission and scattering Spectroscopy of unaligned TMV on a polymer coated gold substrate for S (left column) and P (right column) polarization of light. The top row shows the wavelength dependent differential reflectance of TMV. The wavelength range encompassing the 260nm absorbance peak and the transparent region below the fundamental absorption edge at 320 nm, where the virus-based mesostructure can function as a photon management layer. The TMV induces strong polarization dependent reflectance changes arising from its anisotropy as is seen at high incidence angles. The bottom row shows scattering about a 25 $^{o}$ specular reflected beam as a function of wavelength and angle for S and P polarization. TMV exhibits large reflectance with respect to S-polarized light. From mesostructured virus-templated arrays, multi-angle, polarization-dependent scattering provides information on optical activity and anisotropy and defects.\relax }{figure.caption.23}{}}
\@writefile{lof}{\contentsline {figure}{\numberline {23}{\ignorespaces Increased light capture of a virus-templated TMV photon management film consisting of parallel aligned five layer stack of peptide coated TMV on a 100nm thick silicon wafer with a back-contact reflector. The total intensity above the bare silicon wafer (left) shows the strong standing wave above the wafer due to reflectance of the light. With the TMV film, the total and the total – incident intensity (right) shows higher intensity inside the silicon wafer arising from the improved light coupling by the TMV mesostructure.\relax }}{27}{figure.caption.24}}
\newlabel{fig:EMFlex-TMV}{{23}{27}{Increased light capture of a virus-templated TMV photon management film consisting of parallel aligned five layer stack of peptide coated TMV on a 100nm thick silicon wafer with a back-contact reflector. The total intensity above the bare silicon wafer (left) shows the strong standing wave above the wafer due to reflectance of the light. With the TMV film, the total and the total – incident intensity (right) shows higher intensity inside the silicon wafer arising from the improved light coupling by the TMV mesostructure.\relax }{figure.caption.24}{}}
\@writefile{toc}{\contentsline {section}{\numberline {6}Conclusion/Discussion/Summary}{28}{section.6}}
\bibdata{references}
\bibcite{laird_influence_2006}{1}
\bibcite{dryden_long-range_2014}{2}
\bibcite{Benjamin_2016}{3}
\bibcite{srivastava_light-controlled_2010}{4}
\bibcite{grzelczak_directed_2010}{5}
\bibcite{ma_determination_2014}{6}
\bibcite{sahin_comparative_2010}{7}
\bibcite{steinmetz_pegylated_2009}{8}
\bibcite{ma_long-range_}{9}
\bibcite{glotzer_self-assembly:_2004}{10}
\bibcite{french_origins_2000}{11}
\bibcite{rajter_van_2007}{12}
\bibcite{woollam_overview_1999}{13}
\bibcite{laref_electronic_2008}{14}
\bibcite{ching_theoretical_1990}{15}
\bibcite{parsegian_van_2006}{16}
\bibcite{dryden_van_2015}{17}
\bibcite{some_light-scattering-based_2013}{18}
\bibcite{wu_osmotic_1999}{19}
\bibcite{roth_van_1996}{20}
\bibcite{arzensek_colloidal_2012}{21}
\bibcite{RayleighScattering}{22}
\bibcite{zhang_simulations_2007}{23}
\bibcite{lan_dna-programmed_2014}{24}
\bibcite{schimelman_optical_2015}{25}
\bibcite{poudel_electronic_2014}{26}
\bibcite{stigter_theory_1993}{27}
\bibcite{nicolai_ionic_1989}{28}
\bibcite{borochov_dependence_1981}{29}
\bibcite{program_english:_2008}{30}
\bibcite{ambrus_human_2006}{31}
\bibcite{_g-quadruplex_2016}{32}
\bibcite{Lokendra_2016}{33}
\bibcite{xu_new_2006}{34}
\bibcite{liu_tin-coated_2013}{35}
\bibcite{chiang_biological_2012}{36}
\bibcite{lee_virus-templated_2012}{37}
\bibcite{tseng_digital_2006}{38}
\bibcite{portney_nanoscale_2008}{39}
\bibcite{TMVpic}{40}
\bibcite{niu_assembly_2007}{41}
\bibcite{bortz_optical_1989}{42}
\bibcite{_nucleoside_2016}{43}
\bibcite{tan_optical_2003}{44}
\bibcite{french_optical_1998}{45}
\bibcite{dogic_ordered_2006}{46}
\bibcite{kanduc_role_2009}{47}
\bibstyle{unsrt}
